<?xml version="1.0" encoding="utf-8" standalone="no"?>
<!DOCTYPE svg PUBLIC "-//W3C//DTD SVG 1.1//EN"
  "http://www.w3.org/Graphics/SVG/1.1/DTD/svg11.dtd">
<!-- Created with matplotlib (https://matplotlib.org/) -->
<svg height="231.12pt" version="1.1" viewBox="0 0 964.8 231.12" width="964.8pt" xmlns="http://www.w3.org/2000/svg" xmlns:xlink="http://www.w3.org/1999/xlink">
 <defs>
  <style type="text/css">
*{stroke-linecap:butt;stroke-linejoin:round;}
  </style>
 </defs>
 <g id="figure_1">
  <g id="patch_1">
   <path d="M 0 231.12 
L 964.8 231.12 
L 964.8 0 
L 0 0 
z
" style="fill:#ffffff;"/>
  </g>
  <g id="axes_1">
   <g id="patch_2">
    <path d="M 48.24 196.452 
L 215.224615 196.452 
L 215.224615 23.112 
L 48.24 23.112 
z
" style="fill:#ffffff;"/>
   </g>
   <g id="line2d_1">
    <path clip-path="url(#p6814a39c7a)" d="M 55.83021 35.954298 
L 60.167473 188.572909 
L 64.504735 32.231893 
L 68.841998 135.218435 
L 73.179261 126.532823 
L 77.516523 35.954298 
L 81.853786 188.572909 
L 86.191049 32.231893 
L 90.528312 136.459237 
L 94.865574 126.532823 
L 99.202837 35.954298 
L 103.5401 188.572909 
L 107.877363 32.231893 
L 112.214625 135.218435 
L 116.551888 126.532823 
L 120.889151 35.954298 
L 125.226414 188.572909 
L 129.563676 32.231893 
L 133.900939 135.218435 
L 138.238202 126.532823 
L 142.575465 35.954298 
L 146.912727 188.572909 
L 151.24999 30.991091 
L 155.587253 136.459237 
L 159.924515 126.532823 
L 164.261778 35.954298 
L 168.599041 188.572909 
L 172.936304 32.231893 
L 177.273566 135.218435 
L 181.610829 126.532823 
L 185.948092 35.954298 
L 190.285355 188.572909 
L 194.622617 32.231893 
L 198.95988 136.459237 
L 203.297143 126.532823 
L 207.634406 35.954298 
" style="fill:none;stroke:#1f77b4;stroke-linecap:square;stroke-width:1.5;"/>
    <defs>
     <path d="M 0 3 
C 0.795609 3 1.55874 2.683901 2.12132 2.12132 
C 2.683901 1.55874 3 0.795609 3 0 
C 3 -0.795609 2.683901 -1.55874 2.12132 -2.12132 
C 1.55874 -2.683901 0.795609 -3 0 -3 
C -0.795609 -3 -1.55874 -2.683901 -2.12132 -2.12132 
C -2.683901 -1.55874 -3 -0.795609 -3 0 
C -3 0.795609 -2.683901 1.55874 -2.12132 2.12132 
C -1.55874 2.683901 -0.795609 3 0 3 
z
" id="m438d440d66" style="stroke:#1f77b4;"/>
    </defs>
    <g clip-path="url(#p6814a39c7a)">
     <use style="fill:#1f77b4;stroke:#1f77b4;" x="55.83021" xlink:href="#m438d440d66" y="35.954298"/>
     <use style="fill:#1f77b4;stroke:#1f77b4;" x="60.167473" xlink:href="#m438d440d66" y="188.572909"/>
     <use style="fill:#1f77b4;stroke:#1f77b4;" x="64.504735" xlink:href="#m438d440d66" y="32.231893"/>
     <use style="fill:#1f77b4;stroke:#1f77b4;" x="68.841998" xlink:href="#m438d440d66" y="135.218435"/>
     <use style="fill:#1f77b4;stroke:#1f77b4;" x="73.179261" xlink:href="#m438d440d66" y="126.532823"/>
     <use style="fill:#1f77b4;stroke:#1f77b4;" x="77.516523" xlink:href="#m438d440d66" y="35.954298"/>
     <use style="fill:#1f77b4;stroke:#1f77b4;" x="81.853786" xlink:href="#m438d440d66" y="188.572909"/>
     <use style="fill:#1f77b4;stroke:#1f77b4;" x="86.191049" xlink:href="#m438d440d66" y="32.231893"/>
     <use style="fill:#1f77b4;stroke:#1f77b4;" x="90.528312" xlink:href="#m438d440d66" y="136.459237"/>
     <use style="fill:#1f77b4;stroke:#1f77b4;" x="94.865574" xlink:href="#m438d440d66" y="126.532823"/>
     <use style="fill:#1f77b4;stroke:#1f77b4;" x="99.202837" xlink:href="#m438d440d66" y="35.954298"/>
     <use style="fill:#1f77b4;stroke:#1f77b4;" x="103.5401" xlink:href="#m438d440d66" y="188.572909"/>
     <use style="fill:#1f77b4;stroke:#1f77b4;" x="107.877363" xlink:href="#m438d440d66" y="32.231893"/>
     <use style="fill:#1f77b4;stroke:#1f77b4;" x="112.214625" xlink:href="#m438d440d66" y="135.218435"/>
     <use style="fill:#1f77b4;stroke:#1f77b4;" x="116.551888" xlink:href="#m438d440d66" y="126.532823"/>
     <use style="fill:#1f77b4;stroke:#1f77b4;" x="120.889151" xlink:href="#m438d440d66" y="35.954298"/>
     <use style="fill:#1f77b4;stroke:#1f77b4;" x="125.226414" xlink:href="#m438d440d66" y="188.572909"/>
     <use style="fill:#1f77b4;stroke:#1f77b4;" x="129.563676" xlink:href="#m438d440d66" y="32.231893"/>
     <use style="fill:#1f77b4;stroke:#1f77b4;" x="133.900939" xlink:href="#m438d440d66" y="135.218435"/>
     <use style="fill:#1f77b4;stroke:#1f77b4;" x="138.238202" xlink:href="#m438d440d66" y="126.532823"/>
     <use style="fill:#1f77b4;stroke:#1f77b4;" x="142.575465" xlink:href="#m438d440d66" y="35.954298"/>
     <use style="fill:#1f77b4;stroke:#1f77b4;" x="146.912727" xlink:href="#m438d440d66" y="188.572909"/>
     <use style="fill:#1f77b4;stroke:#1f77b4;" x="151.24999" xlink:href="#m438d440d66" y="30.991091"/>
     <use style="fill:#1f77b4;stroke:#1f77b4;" x="155.587253" xlink:href="#m438d440d66" y="136.459237"/>
     <use style="fill:#1f77b4;stroke:#1f77b4;" x="159.924515" xlink:href="#m438d440d66" y="126.532823"/>
     <use style="fill:#1f77b4;stroke:#1f77b4;" x="164.261778" xlink:href="#m438d440d66" y="35.954298"/>
     <use style="fill:#1f77b4;stroke:#1f77b4;" x="168.599041" xlink:href="#m438d440d66" y="188.572909"/>
     <use style="fill:#1f77b4;stroke:#1f77b4;" x="172.936304" xlink:href="#m438d440d66" y="32.231893"/>
     <use style="fill:#1f77b4;stroke:#1f77b4;" x="177.273566" xlink:href="#m438d440d66" y="135.218435"/>
     <use style="fill:#1f77b4;stroke:#1f77b4;" x="181.610829" xlink:href="#m438d440d66" y="126.532823"/>
     <use style="fill:#1f77b4;stroke:#1f77b4;" x="185.948092" xlink:href="#m438d440d66" y="35.954298"/>
     <use style="fill:#1f77b4;stroke:#1f77b4;" x="190.285355" xlink:href="#m438d440d66" y="188.572909"/>
     <use style="fill:#1f77b4;stroke:#1f77b4;" x="194.622617" xlink:href="#m438d440d66" y="32.231893"/>
     <use style="fill:#1f77b4;stroke:#1f77b4;" x="198.95988" xlink:href="#m438d440d66" y="136.459237"/>
     <use style="fill:#1f77b4;stroke:#1f77b4;" x="203.297143" xlink:href="#m438d440d66" y="126.532823"/>
     <use style="fill:#1f77b4;stroke:#1f77b4;" x="207.634406" xlink:href="#m438d440d66" y="35.954298"/>
    </g>
   </g>
   <g id="mpl_toolkits.axisartist.axis_artist_1">
    <defs>
     <path d="M 0 0 
L 0 -3.5 
" id="m811638281f" style="stroke:#000000;stroke-width:0.8;"/>
    </defs>
    <g>
     <use style="fill:none;stroke:#000000;stroke-width:0.8;" x="55.83021" xlink:href="#m811638281f" y="196.452"/>
    </g>
    <g>
     <use style="fill:none;stroke:#000000;stroke-width:0.8;" x="110.045994" xlink:href="#m811638281f" y="196.452"/>
    </g>
    <g>
     <use style="fill:none;stroke:#000000;stroke-width:0.8;" x="164.261778" xlink:href="#m811638281f" y="196.452"/>
    </g>
    <g id="text_1">
     <!-- 0.0 -->
     <defs>
      <path d="M 31.78125 66.40625 
Q 24.171875 66.40625 20.328125 58.90625 
Q 16.5 51.421875 16.5 36.375 
Q 16.5 21.390625 20.328125 13.890625 
Q 24.171875 6.390625 31.78125 6.390625 
Q 39.453125 6.390625 43.28125 13.890625 
Q 47.125 21.390625 47.125 36.375 
Q 47.125 51.421875 43.28125 58.90625 
Q 39.453125 66.40625 31.78125 66.40625 
z
M 31.78125 74.21875 
Q 44.046875 74.21875 50.515625 64.515625 
Q 56.984375 54.828125 56.984375 36.375 
Q 56.984375 17.96875 50.515625 8.265625 
Q 44.046875 -1.421875 31.78125 -1.421875 
Q 19.53125 -1.421875 13.0625 8.265625 
Q 6.59375 17.96875 6.59375 36.375 
Q 6.59375 54.828125 13.0625 64.515625 
Q 19.53125 74.21875 31.78125 74.21875 
z
" id="DejaVuSans-48"/>
      <path d="M 10.6875 12.40625 
L 21 12.40625 
L 21 0 
L 10.6875 0 
z
" id="DejaVuSans-46"/>
     </defs>
     <g transform="translate(47.878647 207.373875)scale(0.1 -0.1)">
      <use xlink:href="#DejaVuSans-48"/>
      <use x="63.623047" xlink:href="#DejaVuSans-46"/>
      <use x="95.410156" xlink:href="#DejaVuSans-48"/>
     </g>
    </g>
    <g id="text_2">
     <!-- 0.2 -->
     <defs>
      <path d="M 19.1875 8.296875 
L 53.609375 8.296875 
L 53.609375 0 
L 7.328125 0 
L 7.328125 8.296875 
Q 12.9375 14.109375 22.625 23.890625 
Q 32.328125 33.6875 34.8125 36.53125 
Q 39.546875 41.84375 41.421875 45.53125 
Q 43.3125 49.21875 43.3125 52.78125 
Q 43.3125 58.59375 39.234375 62.25 
Q 35.15625 65.921875 28.609375 65.921875 
Q 23.96875 65.921875 18.8125 64.3125 
Q 13.671875 62.703125 7.8125 59.421875 
L 7.8125 69.390625 
Q 13.765625 71.78125 18.9375 73 
Q 24.125 74.21875 28.421875 74.21875 
Q 39.75 74.21875 46.484375 68.546875 
Q 53.21875 62.890625 53.21875 53.421875 
Q 53.21875 48.921875 51.53125 44.890625 
Q 49.859375 40.875 45.40625 35.40625 
Q 44.1875 33.984375 37.640625 27.21875 
Q 31.109375 20.453125 19.1875 8.296875 
z
" id="DejaVuSans-50"/>
     </defs>
     <g transform="translate(102.094432 207.373875)scale(0.1 -0.1)">
      <use xlink:href="#DejaVuSans-48"/>
      <use x="63.623047" xlink:href="#DejaVuSans-46"/>
      <use x="95.410156" xlink:href="#DejaVuSans-50"/>
     </g>
    </g>
    <g id="text_3">
     <!-- 0.4 -->
     <defs>
      <path d="M 37.796875 64.3125 
L 12.890625 25.390625 
L 37.796875 25.390625 
z
M 35.203125 72.90625 
L 47.609375 72.90625 
L 47.609375 25.390625 
L 58.015625 25.390625 
L 58.015625 17.1875 
L 47.609375 17.1875 
L 47.609375 0 
L 37.796875 0 
L 37.796875 17.1875 
L 4.890625 17.1875 
L 4.890625 26.703125 
z
" id="DejaVuSans-52"/>
     </defs>
     <g transform="translate(156.310216 207.373875)scale(0.1 -0.1)">
      <use xlink:href="#DejaVuSans-48"/>
      <use x="63.623047" xlink:href="#DejaVuSans-46"/>
      <use x="95.410156" xlink:href="#DejaVuSans-52"/>
     </g>
    </g>
    <g id="line2d_2">
     <path d="M 48.24 196.452 
L 215.224615 196.452 
" style="fill:none;stroke:#000000;stroke-linecap:square;stroke-width:0.8;"/>
    </g>
    <g id="text_4">
     <!-- $t / \mu s$ -->
     <defs>
      <path d="M 42.28125 54.6875 
L 40.921875 47.703125 
L 23 47.703125 
L 17.1875 18.015625 
Q 16.890625 16.359375 16.75 15.234375 
Q 16.609375 14.109375 16.609375 13.484375 
Q 16.609375 10.359375 18.484375 8.9375 
Q 20.359375 7.515625 24.515625 7.515625 
L 33.59375 7.515625 
L 32.078125 0 
L 23.484375 0 
Q 15.484375 0 11.546875 3.125 
Q 7.625 6.25 7.625 12.59375 
Q 7.625 13.71875 7.765625 15.0625 
Q 7.90625 16.40625 8.203125 18.015625 
L 14.015625 47.703125 
L 6.390625 47.703125 
L 7.8125 54.6875 
L 15.28125 54.6875 
L 18.3125 70.21875 
L 27.296875 70.21875 
L 24.3125 54.6875 
z
" id="DejaVuSans-Oblique-116"/>
      <path d="M 25.390625 72.90625 
L 33.6875 72.90625 
L 8.296875 -9.28125 
L 0 -9.28125 
z
" id="DejaVuSans-47"/>
      <path d="M -1.3125 -20.796875 
L 13.375 54.6875 
L 22.40625 54.6875 
L 15.765625 20.65625 
Q 15.578125 19.625 15.421875 18.359375 
Q 15.28125 17.09375 15.28125 15.828125 
Q 15.28125 11.28125 18.140625 8.828125 
Q 21 6.390625 26.3125 6.390625 
Q 33.546875 6.390625 37.984375 10.484375 
Q 42.4375 14.59375 44 22.796875 
L 50.203125 54.6875 
L 59.1875 54.6875 
L 51.03125 12.640625 
Q 50.828125 11.71875 50.75 11.03125 
Q 50.6875 10.359375 50.6875 9.8125 
Q 50.6875 8.296875 51.296875 7.59375 
Q 51.90625 6.890625 53.21875 6.890625 
Q 53.71875 6.890625 54.5625 7.125 
Q 55.421875 7.375 56.984375 8.015625 
L 55.609375 0.78125 
Q 53.46875 -0.296875 51.515625 -0.859375 
Q 49.5625 -1.421875 47.703125 -1.421875 
Q 44.484375 -1.421875 42.65625 0.625 
Q 40.828125 2.6875 40.828125 6.296875 
Q 38.09375 2.390625 34.296875 0.484375 
Q 30.515625 -1.421875 25.390625 -1.421875 
Q 20.84375 -1.421875 17.453125 0.671875 
Q 14.0625 2.78125 12.984375 6.203125 
L 7.71875 -20.796875 
z
" id="DejaVuSans-Oblique-956"/>
      <path d="M 50 53.078125 
L 48.296875 44.578125 
Q 44.734375 46.53125 40.765625 47.5 
Q 36.8125 48.484375 32.625 48.484375 
Q 25.53125 48.484375 21.453125 46.0625 
Q 17.390625 43.65625 17.390625 39.5 
Q 17.390625 34.671875 26.859375 32.078125 
Q 27.59375 31.890625 27.9375 31.78125 
L 30.8125 30.90625 
Q 39.796875 28.421875 42.796875 25.6875 
Q 45.796875 22.953125 45.796875 18.21875 
Q 45.796875 9.515625 38.890625 4.046875 
Q 31.984375 -1.421875 20.796875 -1.421875 
Q 16.453125 -1.421875 11.671875 -0.578125 
Q 6.890625 0.25 1.125 2 
L 2.875 11.28125 
Q 7.8125 8.734375 12.59375 7.421875 
Q 17.390625 6.109375 21.78125 6.109375 
Q 28.375 6.109375 32.5 8.9375 
Q 36.625 11.765625 36.625 16.109375 
Q 36.625 20.796875 25.78125 23.6875 
L 24.859375 23.921875 
L 21.78125 24.703125 
Q 14.9375 26.515625 11.765625 29.46875 
Q 8.59375 32.421875 8.59375 37.015625 
Q 8.59375 45.75 15.15625 50.875 
Q 21.734375 56 33.015625 56 
Q 37.453125 56 41.671875 55.265625 
Q 45.90625 54.546875 50 53.078125 
z
" id="DejaVuSans-Oblique-115"/>
     </defs>
     <g transform="translate(122.282308 220.094188)scale(0.1 -0.1)">
      <use transform="translate(0 0.09375)" xlink:href="#DejaVuSans-Oblique-116"/>
      <use transform="translate(39.208984 0.09375)" xlink:href="#DejaVuSans-47"/>
      <use transform="translate(72.900391 0.09375)" xlink:href="#DejaVuSans-Oblique-956"/>
      <use transform="translate(136.523438 0.09375)" xlink:href="#DejaVuSans-Oblique-115"/>
     </g>
    </g>
   </g>
   <g id="mpl_toolkits.axisartist.axis_artist_2">
    <defs>
     <path d="M 0 0 
L -0 3.5 
" id="m057a9ea8f6" style="stroke:#000000;stroke-width:0.8;"/>
    </defs>
    <g>
     <use style="fill:none;stroke:#000000;stroke-width:0.8;" x="55.83021" xlink:href="#m057a9ea8f6" y="23.112"/>
    </g>
    <g>
     <use style="fill:none;stroke:#000000;stroke-width:0.8;" x="110.045994" xlink:href="#m057a9ea8f6" y="23.112"/>
    </g>
    <g>
     <use style="fill:none;stroke:#000000;stroke-width:0.8;" x="164.261778" xlink:href="#m057a9ea8f6" y="23.112"/>
    </g>
    <g id="line2d_3">
     <path d="M 48.24 23.112 
L 215.224615 23.112 
" style="fill:none;stroke:#000000;stroke-linecap:square;stroke-width:0.8;"/>
    </g>
   </g>
   <g id="mpl_toolkits.axisartist.axis_artist_3">
    <defs>
     <path d="M 0 0 
L 3.5 0 
" id="ma2d4c45c7f" style="stroke:#000000;stroke-width:0.8;"/>
    </defs>
    <g>
     <use style="fill:none;stroke:#000000;stroke-width:0.8;" x="48.24" xlink:href="#ma2d4c45c7f" y="167.72744"/>
    </g>
    <g>
     <use style="fill:none;stroke:#000000;stroke-width:0.8;" x="48.24" xlink:href="#ma2d4c45c7f" y="135.962916"/>
    </g>
    <g>
     <use style="fill:none;stroke:#000000;stroke-width:0.8;" x="48.24" xlink:href="#ma2d4c45c7f" y="104.198392"/>
    </g>
    <g>
     <use style="fill:none;stroke:#000000;stroke-width:0.8;" x="48.24" xlink:href="#ma2d4c45c7f" y="72.433868"/>
    </g>
    <g>
     <use style="fill:none;stroke:#000000;stroke-width:0.8;" x="48.24" xlink:href="#ma2d4c45c7f" y="40.669344"/>
    </g>
    <g id="text_5">
     <!-- −0.4 -->
     <defs>
      <path d="M 10.59375 35.5 
L 73.1875 35.5 
L 73.1875 27.203125 
L 10.59375 27.203125 
z
" id="DejaVuSans-8722"/>
     </defs>
     <g transform="translate(20.457188 170.486815)scale(0.1 -0.1)">
      <use xlink:href="#DejaVuSans-8722"/>
      <use x="83.789062" xlink:href="#DejaVuSans-48"/>
      <use x="147.412109" xlink:href="#DejaVuSans-46"/>
      <use x="179.199219" xlink:href="#DejaVuSans-52"/>
     </g>
    </g>
    <g id="text_6">
     <!-- −0.2 -->
     <g transform="translate(20.457188 138.722291)scale(0.1 -0.1)">
      <use xlink:href="#DejaVuSans-8722"/>
      <use x="83.789062" xlink:href="#DejaVuSans-48"/>
      <use x="147.412109" xlink:href="#DejaVuSans-46"/>
      <use x="179.199219" xlink:href="#DejaVuSans-50"/>
     </g>
    </g>
    <g id="text_7">
     <!-- 0.0 -->
     <g transform="translate(28.836875 106.957767)scale(0.1 -0.1)">
      <use xlink:href="#DejaVuSans-48"/>
      <use x="63.623047" xlink:href="#DejaVuSans-46"/>
      <use x="95.410156" xlink:href="#DejaVuSans-48"/>
     </g>
    </g>
    <g id="text_8">
     <!-- 0.2 -->
     <g transform="translate(28.836875 75.193243)scale(0.1 -0.1)">
      <use xlink:href="#DejaVuSans-48"/>
      <use x="63.623047" xlink:href="#DejaVuSans-46"/>
      <use x="95.410156" xlink:href="#DejaVuSans-50"/>
     </g>
    </g>
    <g id="text_9">
     <!-- 0.4 -->
     <g transform="translate(28.836875 43.428719)scale(0.1 -0.1)">
      <use xlink:href="#DejaVuSans-48"/>
      <use x="63.623047" xlink:href="#DejaVuSans-46"/>
      <use x="95.410156" xlink:href="#DejaVuSans-52"/>
     </g>
    </g>
    <g id="line2d_4">
     <path d="M 48.24 196.452 
L 48.24 23.112 
" style="fill:none;stroke:#000000;stroke-linecap:square;stroke-width:0.8;"/>
    </g>
    <g id="text_10">
     <!-- $V / V$ -->
     <defs>
      <path d="M 20.609375 0 
L 7.8125 72.90625 
L 17.484375 72.90625 
L 28.078125 10.203125 
L 63.484375 72.90625 
L 74.21875 72.90625 
L 32.078125 0 
z
" id="DejaVuSans-Oblique-86"/>
     </defs>
     <g transform="translate(13.3775 118.332)rotate(-90)scale(0.1 -0.1)">
      <use transform="translate(0 0.09375)" xlink:href="#DejaVuSans-Oblique-86"/>
      <use transform="translate(68.408203 0.09375)" xlink:href="#DejaVuSans-47"/>
      <use transform="translate(102.099609 0.09375)" xlink:href="#DejaVuSans-Oblique-86"/>
     </g>
    </g>
   </g>
   <g id="mpl_toolkits.axisartist.axis_artist_4">
    <defs>
     <path d="M 0 0 
L -3.5 -0 
" id="mdc68a5109b" style="stroke:#000000;stroke-width:0.8;"/>
    </defs>
    <g>
     <use style="fill:none;stroke:#000000;stroke-width:0.8;" x="215.224615" xlink:href="#mdc68a5109b" y="167.72744"/>
    </g>
    <g>
     <use style="fill:none;stroke:#000000;stroke-width:0.8;" x="215.224615" xlink:href="#mdc68a5109b" y="135.962916"/>
    </g>
    <g>
     <use style="fill:none;stroke:#000000;stroke-width:0.8;" x="215.224615" xlink:href="#mdc68a5109b" y="104.198392"/>
    </g>
    <g>
     <use style="fill:none;stroke:#000000;stroke-width:0.8;" x="215.224615" xlink:href="#mdc68a5109b" y="72.433868"/>
    </g>
    <g>
     <use style="fill:none;stroke:#000000;stroke-width:0.8;" x="215.224615" xlink:href="#mdc68a5109b" y="40.669344"/>
    </g>
    <g id="line2d_5">
     <path d="M 215.224615 196.452 
L 215.224615 23.112 
" style="fill:none;stroke:#000000;stroke-linecap:square;stroke-width:0.8;"/>
    </g>
   </g>
   <g id="text_11">
    <!-- $\nu_0 = 0.6\nu_s$ -->
    <defs>
     <path d="M 14.984375 0 
L 8.9375 54.6875 
L 18.609375 54.6875 
L 23.78125 8.796875 
Q 30.8125 14.84375 37.359375 23.25 
Q 42.28125 29.546875 43.5625 35.015625 
Q 44.140625 37.59375 43.890625 42.484375 
Q 43.65625 48.296875 39.75 54.6875 
L 48.828125 54.6875 
L 48.828125 54.6875 
Q 51.375 50.34375 52.390625 44.28125 
Q 53.375 38.71875 52.640625 34.90625 
Q 50.78125 25.34375 42.484375 16.796875 
Q 31.640625 5.671875 24.5625 0 
z
" id="DejaVuSans-Oblique-957"/>
     <path d="M 10.59375 45.40625 
L 73.1875 45.40625 
L 73.1875 37.203125 
L 10.59375 37.203125 
z
M 10.59375 25.484375 
L 73.1875 25.484375 
L 73.1875 17.1875 
L 10.59375 17.1875 
z
" id="DejaVuSans-61"/>
     <path d="M 33.015625 40.375 
Q 26.375 40.375 22.484375 35.828125 
Q 18.609375 31.296875 18.609375 23.390625 
Q 18.609375 15.53125 22.484375 10.953125 
Q 26.375 6.390625 33.015625 6.390625 
Q 39.65625 6.390625 43.53125 10.953125 
Q 47.40625 15.53125 47.40625 23.390625 
Q 47.40625 31.296875 43.53125 35.828125 
Q 39.65625 40.375 33.015625 40.375 
z
M 52.59375 71.296875 
L 52.59375 62.3125 
Q 48.875 64.0625 45.09375 64.984375 
Q 41.3125 65.921875 37.59375 65.921875 
Q 27.828125 65.921875 22.671875 59.328125 
Q 17.53125 52.734375 16.796875 39.40625 
Q 19.671875 43.65625 24.015625 45.921875 
Q 28.375 48.1875 33.59375 48.1875 
Q 44.578125 48.1875 50.953125 41.515625 
Q 57.328125 34.859375 57.328125 23.390625 
Q 57.328125 12.15625 50.6875 5.359375 
Q 44.046875 -1.421875 33.015625 -1.421875 
Q 20.359375 -1.421875 13.671875 8.265625 
Q 6.984375 17.96875 6.984375 36.375 
Q 6.984375 53.65625 15.1875 63.9375 
Q 23.390625 74.21875 37.203125 74.21875 
Q 40.921875 74.21875 44.703125 73.484375 
Q 48.484375 72.75 52.59375 71.296875 
z
" id="DejaVuSans-54"/>
    </defs>
    <g transform="translate(102.932308 17.112)scale(0.12 -0.12)">
     <use transform="translate(0 0.78125)" xlink:href="#DejaVuSans-Oblique-957"/>
     <use transform="translate(55.859375 -15.625)scale(0.7)" xlink:href="#DejaVuSans-48"/>
     <use transform="translate(122.612305 0.78125)" xlink:href="#DejaVuSans-61"/>
     <use transform="translate(225.883789 0.78125)" xlink:href="#DejaVuSans-48"/>
     <use transform="translate(289.506836 0.78125)" xlink:href="#DejaVuSans-46"/>
     <use transform="translate(321.293945 0.78125)" xlink:href="#DejaVuSans-54"/>
     <use transform="translate(384.916992 0.78125)" xlink:href="#DejaVuSans-Oblique-957"/>
     <use transform="translate(440.776367 -15.625)scale(0.7)" xlink:href="#DejaVuSans-Oblique-115"/>
    </g>
   </g>
  </g>
  <g id="axes_2">
   <g id="patch_3">
    <path d="M 282.018462 196.452 
L 449.003077 196.452 
L 449.003077 23.112 
L 282.018462 23.112 
z
" style="fill:#ffffff;"/>
   </g>
   <g id="line2d_6">
    <path clip-path="url(#p879d23e076)" d="M 289.608671 167.644074 
L 293.945934 147.946347 
L 298.283197 30.991091 
L 302.62046 124.555295 
L 306.957722 181.186261 
L 311.294985 55.61325 
L 315.632248 74.079869 
L 319.96951 188.572909 
L 324.306773 101.164244 
L 328.644036 38.377739 
L 332.981299 167.644074 
L 337.318561 147.946347 
L 341.655824 30.991091 
L 345.993087 123.324187 
L 350.33035 181.186261 
L 354.667612 55.61325 
L 359.004875 72.848761 
L 363.342138 188.572909 
L 367.679401 99.933136 
L 372.016663 38.377739 
L 376.353926 167.644074 
L 380.691189 147.946347 
L 385.028452 30.991091 
L 389.365714 123.324187 
L 393.702977 181.186261 
L 398.04024 55.61325 
L 402.377502 72.848761 
L 406.714765 188.572909 
L 411.052028 99.933136 
L 415.389291 37.146631 
L 419.726553 167.644074 
L 424.063816 147.946347 
L 428.401079 30.991091 
L 432.738342 123.324187 
L 437.075604 181.186261 
L 441.412867 55.61325 
" style="fill:none;stroke:#1f77b4;stroke-linecap:square;stroke-width:1.5;"/>
    <g clip-path="url(#p879d23e076)">
     <use style="fill:#1f77b4;stroke:#1f77b4;" x="289.608671" xlink:href="#m438d440d66" y="167.644074"/>
     <use style="fill:#1f77b4;stroke:#1f77b4;" x="293.945934" xlink:href="#m438d440d66" y="147.946347"/>
     <use style="fill:#1f77b4;stroke:#1f77b4;" x="298.283197" xlink:href="#m438d440d66" y="30.991091"/>
     <use style="fill:#1f77b4;stroke:#1f77b4;" x="302.62046" xlink:href="#m438d440d66" y="124.555295"/>
     <use style="fill:#1f77b4;stroke:#1f77b4;" x="306.957722" xlink:href="#m438d440d66" y="181.186261"/>
     <use style="fill:#1f77b4;stroke:#1f77b4;" x="311.294985" xlink:href="#m438d440d66" y="55.61325"/>
     <use style="fill:#1f77b4;stroke:#1f77b4;" x="315.632248" xlink:href="#m438d440d66" y="74.079869"/>
     <use style="fill:#1f77b4;stroke:#1f77b4;" x="319.96951" xlink:href="#m438d440d66" y="188.572909"/>
     <use style="fill:#1f77b4;stroke:#1f77b4;" x="324.306773" xlink:href="#m438d440d66" y="101.164244"/>
     <use style="fill:#1f77b4;stroke:#1f77b4;" x="328.644036" xlink:href="#m438d440d66" y="38.377739"/>
     <use style="fill:#1f77b4;stroke:#1f77b4;" x="332.981299" xlink:href="#m438d440d66" y="167.644074"/>
     <use style="fill:#1f77b4;stroke:#1f77b4;" x="337.318561" xlink:href="#m438d440d66" y="147.946347"/>
     <use style="fill:#1f77b4;stroke:#1f77b4;" x="341.655824" xlink:href="#m438d440d66" y="30.991091"/>
     <use style="fill:#1f77b4;stroke:#1f77b4;" x="345.993087" xlink:href="#m438d440d66" y="123.324187"/>
     <use style="fill:#1f77b4;stroke:#1f77b4;" x="350.33035" xlink:href="#m438d440d66" y="181.186261"/>
     <use style="fill:#1f77b4;stroke:#1f77b4;" x="354.667612" xlink:href="#m438d440d66" y="55.61325"/>
     <use style="fill:#1f77b4;stroke:#1f77b4;" x="359.004875" xlink:href="#m438d440d66" y="72.848761"/>
     <use style="fill:#1f77b4;stroke:#1f77b4;" x="363.342138" xlink:href="#m438d440d66" y="188.572909"/>
     <use style="fill:#1f77b4;stroke:#1f77b4;" x="367.679401" xlink:href="#m438d440d66" y="99.933136"/>
     <use style="fill:#1f77b4;stroke:#1f77b4;" x="372.016663" xlink:href="#m438d440d66" y="38.377739"/>
     <use style="fill:#1f77b4;stroke:#1f77b4;" x="376.353926" xlink:href="#m438d440d66" y="167.644074"/>
     <use style="fill:#1f77b4;stroke:#1f77b4;" x="380.691189" xlink:href="#m438d440d66" y="147.946347"/>
     <use style="fill:#1f77b4;stroke:#1f77b4;" x="385.028452" xlink:href="#m438d440d66" y="30.991091"/>
     <use style="fill:#1f77b4;stroke:#1f77b4;" x="389.365714" xlink:href="#m438d440d66" y="123.324187"/>
     <use style="fill:#1f77b4;stroke:#1f77b4;" x="393.702977" xlink:href="#m438d440d66" y="181.186261"/>
     <use style="fill:#1f77b4;stroke:#1f77b4;" x="398.04024" xlink:href="#m438d440d66" y="55.61325"/>
     <use style="fill:#1f77b4;stroke:#1f77b4;" x="402.377502" xlink:href="#m438d440d66" y="72.848761"/>
     <use style="fill:#1f77b4;stroke:#1f77b4;" x="406.714765" xlink:href="#m438d440d66" y="188.572909"/>
     <use style="fill:#1f77b4;stroke:#1f77b4;" x="411.052028" xlink:href="#m438d440d66" y="99.933136"/>
     <use style="fill:#1f77b4;stroke:#1f77b4;" x="415.389291" xlink:href="#m438d440d66" y="37.146631"/>
     <use style="fill:#1f77b4;stroke:#1f77b4;" x="419.726553" xlink:href="#m438d440d66" y="167.644074"/>
     <use style="fill:#1f77b4;stroke:#1f77b4;" x="424.063816" xlink:href="#m438d440d66" y="147.946347"/>
     <use style="fill:#1f77b4;stroke:#1f77b4;" x="428.401079" xlink:href="#m438d440d66" y="30.991091"/>
     <use style="fill:#1f77b4;stroke:#1f77b4;" x="432.738342" xlink:href="#m438d440d66" y="123.324187"/>
     <use style="fill:#1f77b4;stroke:#1f77b4;" x="437.075604" xlink:href="#m438d440d66" y="181.186261"/>
     <use style="fill:#1f77b4;stroke:#1f77b4;" x="441.412867" xlink:href="#m438d440d66" y="55.61325"/>
    </g>
   </g>
   <g id="mpl_toolkits.axisartist.axis_artist_5">
    <g>
     <use style="fill:none;stroke:#000000;stroke-width:0.8;" x="289.608671" xlink:href="#m811638281f" y="196.452"/>
    </g>
    <g>
     <use style="fill:none;stroke:#000000;stroke-width:0.8;" x="343.824456" xlink:href="#m811638281f" y="196.452"/>
    </g>
    <g>
     <use style="fill:none;stroke:#000000;stroke-width:0.8;" x="398.04024" xlink:href="#m811638281f" y="196.452"/>
    </g>
    <g id="text_12">
     <!-- 0.0 -->
     <g transform="translate(281.657109 207.373875)scale(0.1 -0.1)">
      <use xlink:href="#DejaVuSans-48"/>
      <use x="63.623047" xlink:href="#DejaVuSans-46"/>
      <use x="95.410156" xlink:href="#DejaVuSans-48"/>
     </g>
    </g>
    <g id="text_13">
     <!-- 0.2 -->
     <g transform="translate(335.872893 207.373875)scale(0.1 -0.1)">
      <use xlink:href="#DejaVuSans-48"/>
      <use x="63.623047" xlink:href="#DejaVuSans-46"/>
      <use x="95.410156" xlink:href="#DejaVuSans-50"/>
     </g>
    </g>
    <g id="text_14">
     <!-- 0.4 -->
     <g transform="translate(390.088677 207.373875)scale(0.1 -0.1)">
      <use xlink:href="#DejaVuSans-48"/>
      <use x="63.623047" xlink:href="#DejaVuSans-46"/>
      <use x="95.410156" xlink:href="#DejaVuSans-52"/>
     </g>
    </g>
    <g id="line2d_7">
     <path d="M 282.018462 196.452 
L 449.003077 196.452 
" style="fill:none;stroke:#000000;stroke-linecap:square;stroke-width:0.8;"/>
    </g>
    <g id="text_15">
     <!-- $t / \mu s$ -->
     <g transform="translate(356.060769 220.094188)scale(0.1 -0.1)">
      <use transform="translate(0 0.09375)" xlink:href="#DejaVuSans-Oblique-116"/>
      <use transform="translate(39.208984 0.09375)" xlink:href="#DejaVuSans-47"/>
      <use transform="translate(72.900391 0.09375)" xlink:href="#DejaVuSans-Oblique-956"/>
      <use transform="translate(136.523438 0.09375)" xlink:href="#DejaVuSans-Oblique-115"/>
     </g>
    </g>
   </g>
   <g id="mpl_toolkits.axisartist.axis_artist_6">
    <g>
     <use style="fill:none;stroke:#000000;stroke-width:0.8;" x="289.608671" xlink:href="#m057a9ea8f6" y="23.112"/>
    </g>
    <g>
     <use style="fill:none;stroke:#000000;stroke-width:0.8;" x="343.824456" xlink:href="#m057a9ea8f6" y="23.112"/>
    </g>
    <g>
     <use style="fill:none;stroke:#000000;stroke-width:0.8;" x="398.04024" xlink:href="#m057a9ea8f6" y="23.112"/>
    </g>
    <g id="line2d_8">
     <path d="M 282.018462 23.112 
L 449.003077 23.112 
" style="fill:none;stroke:#000000;stroke-linecap:square;stroke-width:0.8;"/>
    </g>
   </g>
   <g id="mpl_toolkits.axisartist.axis_artist_7">
    <g>
     <use style="fill:none;stroke:#000000;stroke-width:0.8;" x="282.018462" xlink:href="#ma2d4c45c7f" y="174.045835"/>
    </g>
    <g>
     <use style="fill:none;stroke:#000000;stroke-width:0.8;" x="282.018462" xlink:href="#ma2d4c45c7f" y="142.529472"/>
    </g>
    <g>
     <use style="fill:none;stroke:#000000;stroke-width:0.8;" x="282.018462" xlink:href="#ma2d4c45c7f" y="111.013108"/>
    </g>
    <g>
     <use style="fill:none;stroke:#000000;stroke-width:0.8;" x="282.018462" xlink:href="#ma2d4c45c7f" y="79.496744"/>
    </g>
    <g>
     <use style="fill:none;stroke:#000000;stroke-width:0.8;" x="282.018462" xlink:href="#ma2d4c45c7f" y="47.980381"/>
    </g>
    <g id="text_16">
     <!-- −0.4 -->
     <g transform="translate(254.235649 176.80521)scale(0.1 -0.1)">
      <use xlink:href="#DejaVuSans-8722"/>
      <use x="83.789062" xlink:href="#DejaVuSans-48"/>
      <use x="147.412109" xlink:href="#DejaVuSans-46"/>
      <use x="179.199219" xlink:href="#DejaVuSans-52"/>
     </g>
    </g>
    <g id="text_17">
     <!-- −0.2 -->
     <g transform="translate(254.235649 145.288847)scale(0.1 -0.1)">
      <use xlink:href="#DejaVuSans-8722"/>
      <use x="83.789062" xlink:href="#DejaVuSans-48"/>
      <use x="147.412109" xlink:href="#DejaVuSans-46"/>
      <use x="179.199219" xlink:href="#DejaVuSans-50"/>
     </g>
    </g>
    <g id="text_18">
     <!-- 0.0 -->
     <g transform="translate(262.615337 113.772483)scale(0.1 -0.1)">
      <use xlink:href="#DejaVuSans-48"/>
      <use x="63.623047" xlink:href="#DejaVuSans-46"/>
      <use x="95.410156" xlink:href="#DejaVuSans-48"/>
     </g>
    </g>
    <g id="text_19">
     <!-- 0.2 -->
     <g transform="translate(262.615337 82.256119)scale(0.1 -0.1)">
      <use xlink:href="#DejaVuSans-48"/>
      <use x="63.623047" xlink:href="#DejaVuSans-46"/>
      <use x="95.410156" xlink:href="#DejaVuSans-50"/>
     </g>
    </g>
    <g id="text_20">
     <!-- 0.4 -->
     <g transform="translate(262.615337 50.739756)scale(0.1 -0.1)">
      <use xlink:href="#DejaVuSans-48"/>
      <use x="63.623047" xlink:href="#DejaVuSans-46"/>
      <use x="95.410156" xlink:href="#DejaVuSans-52"/>
     </g>
    </g>
    <g id="line2d_9">
     <path d="M 282.018462 196.452 
L 282.018462 23.112 
" style="fill:none;stroke:#000000;stroke-linecap:square;stroke-width:0.8;"/>
    </g>
    <g id="text_21">
     <!-- $V / V$ -->
     <g transform="translate(247.155962 118.332)rotate(-90)scale(0.1 -0.1)">
      <use transform="translate(0 0.09375)" xlink:href="#DejaVuSans-Oblique-86"/>
      <use transform="translate(68.408203 0.09375)" xlink:href="#DejaVuSans-47"/>
      <use transform="translate(102.099609 0.09375)" xlink:href="#DejaVuSans-Oblique-86"/>
     </g>
    </g>
   </g>
   <g id="mpl_toolkits.axisartist.axis_artist_8">
    <g>
     <use style="fill:none;stroke:#000000;stroke-width:0.8;" x="449.003077" xlink:href="#mdc68a5109b" y="174.045835"/>
    </g>
    <g>
     <use style="fill:none;stroke:#000000;stroke-width:0.8;" x="449.003077" xlink:href="#mdc68a5109b" y="142.529472"/>
    </g>
    <g>
     <use style="fill:none;stroke:#000000;stroke-width:0.8;" x="449.003077" xlink:href="#mdc68a5109b" y="111.013108"/>
    </g>
    <g>
     <use style="fill:none;stroke:#000000;stroke-width:0.8;" x="449.003077" xlink:href="#mdc68a5109b" y="79.496744"/>
    </g>
    <g>
     <use style="fill:none;stroke:#000000;stroke-width:0.8;" x="449.003077" xlink:href="#mdc68a5109b" y="47.980381"/>
    </g>
    <g id="line2d_10">
     <path d="M 449.003077 196.452 
L 449.003077 23.112 
" style="fill:none;stroke:#000000;stroke-linecap:square;stroke-width:0.8;"/>
    </g>
   </g>
   <g id="text_22">
    <!-- $\nu_0 = 0.7\nu_s$ -->
    <defs>
     <path d="M 8.203125 72.90625 
L 55.078125 72.90625 
L 55.078125 68.703125 
L 28.609375 0 
L 18.3125 0 
L 43.21875 64.59375 
L 8.203125 64.59375 
z
" id="DejaVuSans-55"/>
    </defs>
    <g transform="translate(336.710769 17.112)scale(0.12 -0.12)">
     <use transform="translate(0 0.78125)" xlink:href="#DejaVuSans-Oblique-957"/>
     <use transform="translate(55.859375 -15.625)scale(0.7)" xlink:href="#DejaVuSans-48"/>
     <use transform="translate(122.612305 0.78125)" xlink:href="#DejaVuSans-61"/>
     <use transform="translate(225.883789 0.78125)" xlink:href="#DejaVuSans-48"/>
     <use transform="translate(289.506836 0.78125)" xlink:href="#DejaVuSans-46"/>
     <use transform="translate(321.18457 0.78125)" xlink:href="#DejaVuSans-55"/>
     <use transform="translate(384.807617 0.78125)" xlink:href="#DejaVuSans-Oblique-957"/>
     <use transform="translate(440.666992 -15.625)scale(0.7)" xlink:href="#DejaVuSans-Oblique-115"/>
    </g>
   </g>
  </g>
  <g id="axes_3">
   <g id="patch_4">
    <path d="M 515.796923 196.452 
L 682.781538 196.452 
L 682.781538 23.112 
L 515.796923 23.112 
z
" style="fill:#ffffff;"/>
   </g>
   <g id="line2d_11">
    <path clip-path="url(#p6be333d79b)" d="M 523.387133 109.03161 
L 527.724396 188.572909 
L 532.061658 163.059662 
L 536.398921 67.009792 
L 540.736184 30.991091 
L 545.073447 109.03161 
L 549.410709 188.572909 
L 553.747972 163.059662 
L 558.085235 67.009792 
L 562.422498 30.991091 
L 566.75976 109.03161 
L 571.097023 187.07213 
L 575.434286 163.059662 
L 579.771548 67.009792 
L 584.108811 30.991091 
L 588.446074 107.530831 
L 592.783337 188.572909 
L 597.120599 163.059662 
L 601.457862 68.510571 
L 605.795125 30.991091 
L 610.132388 107.530831 
L 614.46965 188.572909 
L 618.806913 163.059662 
L 623.144176 68.510571 
L 627.481439 30.991091 
L 631.818701 107.530831 
L 636.155964 188.572909 
L 640.493227 163.059662 
L 644.83049 67.009792 
L 649.167752 30.991091 
L 653.505015 109.03161 
L 657.842278 188.572909 
L 662.17954 163.059662 
L 666.516803 67.009792 
L 670.854066 30.991091 
L 675.191329 109.03161 
" style="fill:none;stroke:#1f77b4;stroke-linecap:square;stroke-width:1.5;"/>
    <g clip-path="url(#p6be333d79b)">
     <use style="fill:#1f77b4;stroke:#1f77b4;" x="523.387133" xlink:href="#m438d440d66" y="109.03161"/>
     <use style="fill:#1f77b4;stroke:#1f77b4;" x="527.724396" xlink:href="#m438d440d66" y="188.572909"/>
     <use style="fill:#1f77b4;stroke:#1f77b4;" x="532.061658" xlink:href="#m438d440d66" y="163.059662"/>
     <use style="fill:#1f77b4;stroke:#1f77b4;" x="536.398921" xlink:href="#m438d440d66" y="67.009792"/>
     <use style="fill:#1f77b4;stroke:#1f77b4;" x="540.736184" xlink:href="#m438d440d66" y="30.991091"/>
     <use style="fill:#1f77b4;stroke:#1f77b4;" x="545.073447" xlink:href="#m438d440d66" y="109.03161"/>
     <use style="fill:#1f77b4;stroke:#1f77b4;" x="549.410709" xlink:href="#m438d440d66" y="188.572909"/>
     <use style="fill:#1f77b4;stroke:#1f77b4;" x="553.747972" xlink:href="#m438d440d66" y="163.059662"/>
     <use style="fill:#1f77b4;stroke:#1f77b4;" x="558.085235" xlink:href="#m438d440d66" y="67.009792"/>
     <use style="fill:#1f77b4;stroke:#1f77b4;" x="562.422498" xlink:href="#m438d440d66" y="30.991091"/>
     <use style="fill:#1f77b4;stroke:#1f77b4;" x="566.75976" xlink:href="#m438d440d66" y="109.03161"/>
     <use style="fill:#1f77b4;stroke:#1f77b4;" x="571.097023" xlink:href="#m438d440d66" y="187.07213"/>
     <use style="fill:#1f77b4;stroke:#1f77b4;" x="575.434286" xlink:href="#m438d440d66" y="163.059662"/>
     <use style="fill:#1f77b4;stroke:#1f77b4;" x="579.771548" xlink:href="#m438d440d66" y="67.009792"/>
     <use style="fill:#1f77b4;stroke:#1f77b4;" x="584.108811" xlink:href="#m438d440d66" y="30.991091"/>
     <use style="fill:#1f77b4;stroke:#1f77b4;" x="588.446074" xlink:href="#m438d440d66" y="107.530831"/>
     <use style="fill:#1f77b4;stroke:#1f77b4;" x="592.783337" xlink:href="#m438d440d66" y="188.572909"/>
     <use style="fill:#1f77b4;stroke:#1f77b4;" x="597.120599" xlink:href="#m438d440d66" y="163.059662"/>
     <use style="fill:#1f77b4;stroke:#1f77b4;" x="601.457862" xlink:href="#m438d440d66" y="68.510571"/>
     <use style="fill:#1f77b4;stroke:#1f77b4;" x="605.795125" xlink:href="#m438d440d66" y="30.991091"/>
     <use style="fill:#1f77b4;stroke:#1f77b4;" x="610.132388" xlink:href="#m438d440d66" y="107.530831"/>
     <use style="fill:#1f77b4;stroke:#1f77b4;" x="614.46965" xlink:href="#m438d440d66" y="188.572909"/>
     <use style="fill:#1f77b4;stroke:#1f77b4;" x="618.806913" xlink:href="#m438d440d66" y="163.059662"/>
     <use style="fill:#1f77b4;stroke:#1f77b4;" x="623.144176" xlink:href="#m438d440d66" y="68.510571"/>
     <use style="fill:#1f77b4;stroke:#1f77b4;" x="627.481439" xlink:href="#m438d440d66" y="30.991091"/>
     <use style="fill:#1f77b4;stroke:#1f77b4;" x="631.818701" xlink:href="#m438d440d66" y="107.530831"/>
     <use style="fill:#1f77b4;stroke:#1f77b4;" x="636.155964" xlink:href="#m438d440d66" y="188.572909"/>
     <use style="fill:#1f77b4;stroke:#1f77b4;" x="640.493227" xlink:href="#m438d440d66" y="163.059662"/>
     <use style="fill:#1f77b4;stroke:#1f77b4;" x="644.83049" xlink:href="#m438d440d66" y="67.009792"/>
     <use style="fill:#1f77b4;stroke:#1f77b4;" x="649.167752" xlink:href="#m438d440d66" y="30.991091"/>
     <use style="fill:#1f77b4;stroke:#1f77b4;" x="653.505015" xlink:href="#m438d440d66" y="109.03161"/>
     <use style="fill:#1f77b4;stroke:#1f77b4;" x="657.842278" xlink:href="#m438d440d66" y="188.572909"/>
     <use style="fill:#1f77b4;stroke:#1f77b4;" x="662.17954" xlink:href="#m438d440d66" y="163.059662"/>
     <use style="fill:#1f77b4;stroke:#1f77b4;" x="666.516803" xlink:href="#m438d440d66" y="67.009792"/>
     <use style="fill:#1f77b4;stroke:#1f77b4;" x="670.854066" xlink:href="#m438d440d66" y="30.991091"/>
     <use style="fill:#1f77b4;stroke:#1f77b4;" x="675.191329" xlink:href="#m438d440d66" y="109.03161"/>
    </g>
   </g>
   <g id="mpl_toolkits.axisartist.axis_artist_9">
    <g>
     <use style="fill:none;stroke:#000000;stroke-width:0.8;" x="523.387133" xlink:href="#m811638281f" y="196.452"/>
    </g>
    <g>
     <use style="fill:none;stroke:#000000;stroke-width:0.8;" x="577.602917" xlink:href="#m811638281f" y="196.452"/>
    </g>
    <g>
     <use style="fill:none;stroke:#000000;stroke-width:0.8;" x="631.818701" xlink:href="#m811638281f" y="196.452"/>
    </g>
    <g id="text_23">
     <!-- 0.0 -->
     <g transform="translate(515.43557 207.373875)scale(0.1 -0.1)">
      <use xlink:href="#DejaVuSans-48"/>
      <use x="63.623047" xlink:href="#DejaVuSans-46"/>
      <use x="95.410156" xlink:href="#DejaVuSans-48"/>
     </g>
    </g>
    <g id="text_24">
     <!-- 0.2 -->
     <g transform="translate(569.651355 207.373875)scale(0.1 -0.1)">
      <use xlink:href="#DejaVuSans-48"/>
      <use x="63.623047" xlink:href="#DejaVuSans-46"/>
      <use x="95.410156" xlink:href="#DejaVuSans-50"/>
     </g>
    </g>
    <g id="text_25">
     <!-- 0.4 -->
     <g transform="translate(623.867139 207.373875)scale(0.1 -0.1)">
      <use xlink:href="#DejaVuSans-48"/>
      <use x="63.623047" xlink:href="#DejaVuSans-46"/>
      <use x="95.410156" xlink:href="#DejaVuSans-52"/>
     </g>
    </g>
    <g id="line2d_12">
     <path d="M 515.796923 196.452 
L 682.781538 196.452 
" style="fill:none;stroke:#000000;stroke-linecap:square;stroke-width:0.8;"/>
    </g>
    <g id="text_26">
     <!-- $t / \mu s$ -->
     <g transform="translate(589.839231 220.094188)scale(0.1 -0.1)">
      <use transform="translate(0 0.09375)" xlink:href="#DejaVuSans-Oblique-116"/>
      <use transform="translate(39.208984 0.09375)" xlink:href="#DejaVuSans-47"/>
      <use transform="translate(72.900391 0.09375)" xlink:href="#DejaVuSans-Oblique-956"/>
      <use transform="translate(136.523438 0.09375)" xlink:href="#DejaVuSans-Oblique-115"/>
     </g>
    </g>
   </g>
   <g id="mpl_toolkits.axisartist.axis_artist_10">
    <g>
     <use style="fill:none;stroke:#000000;stroke-width:0.8;" x="523.387133" xlink:href="#m057a9ea8f6" y="23.112"/>
    </g>
    <g>
     <use style="fill:none;stroke:#000000;stroke-width:0.8;" x="577.602917" xlink:href="#m057a9ea8f6" y="23.112"/>
    </g>
    <g>
     <use style="fill:none;stroke:#000000;stroke-width:0.8;" x="631.818701" xlink:href="#m057a9ea8f6" y="23.112"/>
    </g>
    <g id="line2d_13">
     <path d="M 515.796923 23.112 
L 682.781538 23.112 
" style="fill:none;stroke:#000000;stroke-linecap:square;stroke-width:0.8;"/>
    </g>
   </g>
   <g id="mpl_toolkits.axisartist.axis_artist_11">
    <g>
     <use style="fill:none;stroke:#000000;stroke-width:0.8;" x="515.796923" xlink:href="#ma2d4c45c7f" y="188.873065"/>
    </g>
    <g>
     <use style="fill:none;stroke:#000000;stroke-width:0.8;" x="515.796923" xlink:href="#ma2d4c45c7f" y="150.453117"/>
    </g>
    <g>
     <use style="fill:none;stroke:#000000;stroke-width:0.8;" x="515.796923" xlink:href="#ma2d4c45c7f" y="112.033169"/>
    </g>
    <g>
     <use style="fill:none;stroke:#000000;stroke-width:0.8;" x="515.796923" xlink:href="#ma2d4c45c7f" y="73.613221"/>
    </g>
    <g>
     <use style="fill:none;stroke:#000000;stroke-width:0.8;" x="515.796923" xlink:href="#ma2d4c45c7f" y="35.193273"/>
    </g>
    <g id="text_27">
     <!-- −0.4 -->
     <g transform="translate(488.014111 191.63244)scale(0.1 -0.1)">
      <use xlink:href="#DejaVuSans-8722"/>
      <use x="83.789062" xlink:href="#DejaVuSans-48"/>
      <use x="147.412109" xlink:href="#DejaVuSans-46"/>
      <use x="179.199219" xlink:href="#DejaVuSans-52"/>
     </g>
    </g>
    <g id="text_28">
     <!-- −0.2 -->
     <g transform="translate(488.014111 153.212492)scale(0.1 -0.1)">
      <use xlink:href="#DejaVuSans-8722"/>
      <use x="83.789062" xlink:href="#DejaVuSans-48"/>
      <use x="147.412109" xlink:href="#DejaVuSans-46"/>
      <use x="179.199219" xlink:href="#DejaVuSans-50"/>
     </g>
    </g>
    <g id="text_29">
     <!-- 0.0 -->
     <g transform="translate(496.393798 114.792544)scale(0.1 -0.1)">
      <use xlink:href="#DejaVuSans-48"/>
      <use x="63.623047" xlink:href="#DejaVuSans-46"/>
      <use x="95.410156" xlink:href="#DejaVuSans-48"/>
     </g>
    </g>
    <g id="text_30">
     <!-- 0.2 -->
     <g transform="translate(496.393798 76.372596)scale(0.1 -0.1)">
      <use xlink:href="#DejaVuSans-48"/>
      <use x="63.623047" xlink:href="#DejaVuSans-46"/>
      <use x="95.410156" xlink:href="#DejaVuSans-50"/>
     </g>
    </g>
    <g id="text_31">
     <!-- 0.4 -->
     <g transform="translate(496.393798 37.952648)scale(0.1 -0.1)">
      <use xlink:href="#DejaVuSans-48"/>
      <use x="63.623047" xlink:href="#DejaVuSans-46"/>
      <use x="95.410156" xlink:href="#DejaVuSans-52"/>
     </g>
    </g>
    <g id="line2d_14">
     <path d="M 515.796923 196.452 
L 515.796923 23.112 
" style="fill:none;stroke:#000000;stroke-linecap:square;stroke-width:0.8;"/>
    </g>
    <g id="text_32">
     <!-- $V / V$ -->
     <g transform="translate(480.934423 118.332)rotate(-90)scale(0.1 -0.1)">
      <use transform="translate(0 0.09375)" xlink:href="#DejaVuSans-Oblique-86"/>
      <use transform="translate(68.408203 0.09375)" xlink:href="#DejaVuSans-47"/>
      <use transform="translate(102.099609 0.09375)" xlink:href="#DejaVuSans-Oblique-86"/>
     </g>
    </g>
   </g>
   <g id="mpl_toolkits.axisartist.axis_artist_12">
    <g>
     <use style="fill:none;stroke:#000000;stroke-width:0.8;" x="682.781538" xlink:href="#mdc68a5109b" y="188.873065"/>
    </g>
    <g>
     <use style="fill:none;stroke:#000000;stroke-width:0.8;" x="682.781538" xlink:href="#mdc68a5109b" y="150.453117"/>
    </g>
    <g>
     <use style="fill:none;stroke:#000000;stroke-width:0.8;" x="682.781538" xlink:href="#mdc68a5109b" y="112.033169"/>
    </g>
    <g>
     <use style="fill:none;stroke:#000000;stroke-width:0.8;" x="682.781538" xlink:href="#mdc68a5109b" y="73.613221"/>
    </g>
    <g>
     <use style="fill:none;stroke:#000000;stroke-width:0.8;" x="682.781538" xlink:href="#mdc68a5109b" y="35.193273"/>
    </g>
    <g id="line2d_15">
     <path d="M 682.781538 196.452 
L 682.781538 23.112 
" style="fill:none;stroke:#000000;stroke-linecap:square;stroke-width:0.8;"/>
    </g>
   </g>
   <g id="text_33">
    <!-- $\nu_0 = 0.8\nu_s$ -->
    <defs>
     <path d="M 31.78125 34.625 
Q 24.75 34.625 20.71875 30.859375 
Q 16.703125 27.09375 16.703125 20.515625 
Q 16.703125 13.921875 20.71875 10.15625 
Q 24.75 6.390625 31.78125 6.390625 
Q 38.8125 6.390625 42.859375 10.171875 
Q 46.921875 13.96875 46.921875 20.515625 
Q 46.921875 27.09375 42.890625 30.859375 
Q 38.875 34.625 31.78125 34.625 
z
M 21.921875 38.8125 
Q 15.578125 40.375 12.03125 44.71875 
Q 8.5 49.078125 8.5 55.328125 
Q 8.5 64.0625 14.71875 69.140625 
Q 20.953125 74.21875 31.78125 74.21875 
Q 42.671875 74.21875 48.875 69.140625 
Q 55.078125 64.0625 55.078125 55.328125 
Q 55.078125 49.078125 51.53125 44.71875 
Q 48 40.375 41.703125 38.8125 
Q 48.828125 37.15625 52.796875 32.3125 
Q 56.78125 27.484375 56.78125 20.515625 
Q 56.78125 9.90625 50.3125 4.234375 
Q 43.84375 -1.421875 31.78125 -1.421875 
Q 19.734375 -1.421875 13.25 4.234375 
Q 6.78125 9.90625 6.78125 20.515625 
Q 6.78125 27.484375 10.78125 32.3125 
Q 14.796875 37.15625 21.921875 38.8125 
z
M 18.3125 54.390625 
Q 18.3125 48.734375 21.84375 45.5625 
Q 25.390625 42.390625 31.78125 42.390625 
Q 38.140625 42.390625 41.71875 45.5625 
Q 45.3125 48.734375 45.3125 54.390625 
Q 45.3125 60.0625 41.71875 63.234375 
Q 38.140625 66.40625 31.78125 66.40625 
Q 25.390625 66.40625 21.84375 63.234375 
Q 18.3125 60.0625 18.3125 54.390625 
z
" id="DejaVuSans-56"/>
    </defs>
    <g transform="translate(570.489231 17.112)scale(0.12 -0.12)">
     <use transform="translate(0 0.78125)" xlink:href="#DejaVuSans-Oblique-957"/>
     <use transform="translate(55.859375 -15.625)scale(0.7)" xlink:href="#DejaVuSans-48"/>
     <use transform="translate(122.612305 0.78125)" xlink:href="#DejaVuSans-61"/>
     <use transform="translate(225.883789 0.78125)" xlink:href="#DejaVuSans-48"/>
     <use transform="translate(289.506836 0.78125)" xlink:href="#DejaVuSans-46"/>
     <use transform="translate(321.262695 0.78125)" xlink:href="#DejaVuSans-56"/>
     <use transform="translate(384.885742 0.78125)" xlink:href="#DejaVuSans-Oblique-957"/>
     <use transform="translate(440.745117 -15.625)scale(0.7)" xlink:href="#DejaVuSans-Oblique-115"/>
    </g>
   </g>
  </g>
  <g id="axes_4">
   <g id="patch_5">
    <path d="M 749.575385 196.452 
L 916.56 196.452 
L 916.56 23.112 
L 749.575385 23.112 
z
" style="fill:#ffffff;"/>
   </g>
   <g id="line2d_16">
    <path clip-path="url(#p3a55dcf528)" d="M 757.165594 121.037844 
L 761.502857 72.551131 
L 765.84012 37.917764 
L 770.177383 30.991091 
L 774.514645 55.234448 
L 778.851908 100.257824 
L 783.189171 150.476206 
L 787.526434 183.377904 
L 791.863696 188.572909 
L 796.200959 164.329552 
L 800.538222 121.037844 
L 804.875485 72.551131 
L 809.212747 37.917764 
L 813.55001 30.991091 
L 817.887273 55.234448 
L 822.224535 101.989493 
L 826.561798 150.476206 
L 830.899061 181.646236 
L 835.236324 186.841241 
L 839.573586 164.329552 
L 843.910849 121.037844 
L 848.248112 72.551131 
L 852.585375 37.917764 
L 856.922637 30.991091 
L 861.2599 55.234448 
L 865.597163 101.989493 
L 869.934426 150.476206 
L 874.271688 183.377904 
L 878.608951 188.572909 
L 882.946214 164.329552 
L 887.283477 121.037844 
L 891.620739 72.551131 
L 895.958002 37.917764 
L 900.295265 30.991091 
L 904.632527 55.234448 
L 908.96979 100.257824 
" style="fill:none;stroke:#1f77b4;stroke-linecap:square;stroke-width:1.5;"/>
    <g clip-path="url(#p3a55dcf528)">
     <use style="fill:#1f77b4;stroke:#1f77b4;" x="757.165594" xlink:href="#m438d440d66" y="121.037844"/>
     <use style="fill:#1f77b4;stroke:#1f77b4;" x="761.502857" xlink:href="#m438d440d66" y="72.551131"/>
     <use style="fill:#1f77b4;stroke:#1f77b4;" x="765.84012" xlink:href="#m438d440d66" y="37.917764"/>
     <use style="fill:#1f77b4;stroke:#1f77b4;" x="770.177383" xlink:href="#m438d440d66" y="30.991091"/>
     <use style="fill:#1f77b4;stroke:#1f77b4;" x="774.514645" xlink:href="#m438d440d66" y="55.234448"/>
     <use style="fill:#1f77b4;stroke:#1f77b4;" x="778.851908" xlink:href="#m438d440d66" y="100.257824"/>
     <use style="fill:#1f77b4;stroke:#1f77b4;" x="783.189171" xlink:href="#m438d440d66" y="150.476206"/>
     <use style="fill:#1f77b4;stroke:#1f77b4;" x="787.526434" xlink:href="#m438d440d66" y="183.377904"/>
     <use style="fill:#1f77b4;stroke:#1f77b4;" x="791.863696" xlink:href="#m438d440d66" y="188.572909"/>
     <use style="fill:#1f77b4;stroke:#1f77b4;" x="796.200959" xlink:href="#m438d440d66" y="164.329552"/>
     <use style="fill:#1f77b4;stroke:#1f77b4;" x="800.538222" xlink:href="#m438d440d66" y="121.037844"/>
     <use style="fill:#1f77b4;stroke:#1f77b4;" x="804.875485" xlink:href="#m438d440d66" y="72.551131"/>
     <use style="fill:#1f77b4;stroke:#1f77b4;" x="809.212747" xlink:href="#m438d440d66" y="37.917764"/>
     <use style="fill:#1f77b4;stroke:#1f77b4;" x="813.55001" xlink:href="#m438d440d66" y="30.991091"/>
     <use style="fill:#1f77b4;stroke:#1f77b4;" x="817.887273" xlink:href="#m438d440d66" y="55.234448"/>
     <use style="fill:#1f77b4;stroke:#1f77b4;" x="822.224535" xlink:href="#m438d440d66" y="101.989493"/>
     <use style="fill:#1f77b4;stroke:#1f77b4;" x="826.561798" xlink:href="#m438d440d66" y="150.476206"/>
     <use style="fill:#1f77b4;stroke:#1f77b4;" x="830.899061" xlink:href="#m438d440d66" y="181.646236"/>
     <use style="fill:#1f77b4;stroke:#1f77b4;" x="835.236324" xlink:href="#m438d440d66" y="186.841241"/>
     <use style="fill:#1f77b4;stroke:#1f77b4;" x="839.573586" xlink:href="#m438d440d66" y="164.329552"/>
     <use style="fill:#1f77b4;stroke:#1f77b4;" x="843.910849" xlink:href="#m438d440d66" y="121.037844"/>
     <use style="fill:#1f77b4;stroke:#1f77b4;" x="848.248112" xlink:href="#m438d440d66" y="72.551131"/>
     <use style="fill:#1f77b4;stroke:#1f77b4;" x="852.585375" xlink:href="#m438d440d66" y="37.917764"/>
     <use style="fill:#1f77b4;stroke:#1f77b4;" x="856.922637" xlink:href="#m438d440d66" y="30.991091"/>
     <use style="fill:#1f77b4;stroke:#1f77b4;" x="861.2599" xlink:href="#m438d440d66" y="55.234448"/>
     <use style="fill:#1f77b4;stroke:#1f77b4;" x="865.597163" xlink:href="#m438d440d66" y="101.989493"/>
     <use style="fill:#1f77b4;stroke:#1f77b4;" x="869.934426" xlink:href="#m438d440d66" y="150.476206"/>
     <use style="fill:#1f77b4;stroke:#1f77b4;" x="874.271688" xlink:href="#m438d440d66" y="183.377904"/>
     <use style="fill:#1f77b4;stroke:#1f77b4;" x="878.608951" xlink:href="#m438d440d66" y="188.572909"/>
     <use style="fill:#1f77b4;stroke:#1f77b4;" x="882.946214" xlink:href="#m438d440d66" y="164.329552"/>
     <use style="fill:#1f77b4;stroke:#1f77b4;" x="887.283477" xlink:href="#m438d440d66" y="121.037844"/>
     <use style="fill:#1f77b4;stroke:#1f77b4;" x="891.620739" xlink:href="#m438d440d66" y="72.551131"/>
     <use style="fill:#1f77b4;stroke:#1f77b4;" x="895.958002" xlink:href="#m438d440d66" y="37.917764"/>
     <use style="fill:#1f77b4;stroke:#1f77b4;" x="900.295265" xlink:href="#m438d440d66" y="30.991091"/>
     <use style="fill:#1f77b4;stroke:#1f77b4;" x="904.632527" xlink:href="#m438d440d66" y="55.234448"/>
     <use style="fill:#1f77b4;stroke:#1f77b4;" x="908.96979" xlink:href="#m438d440d66" y="100.257824"/>
    </g>
   </g>
   <g id="mpl_toolkits.axisartist.axis_artist_13">
    <g>
     <use style="fill:none;stroke:#000000;stroke-width:0.8;" x="757.165594" xlink:href="#m811638281f" y="196.452"/>
    </g>
    <g>
     <use style="fill:none;stroke:#000000;stroke-width:0.8;" x="811.381379" xlink:href="#m811638281f" y="196.452"/>
    </g>
    <g>
     <use style="fill:none;stroke:#000000;stroke-width:0.8;" x="865.597163" xlink:href="#m811638281f" y="196.452"/>
    </g>
    <g id="text_34">
     <!-- 0.0 -->
     <g transform="translate(749.214032 207.373875)scale(0.1 -0.1)">
      <use xlink:href="#DejaVuSans-48"/>
      <use x="63.623047" xlink:href="#DejaVuSans-46"/>
      <use x="95.410156" xlink:href="#DejaVuSans-48"/>
     </g>
    </g>
    <g id="text_35">
     <!-- 0.2 -->
     <g transform="translate(803.429816 207.373875)scale(0.1 -0.1)">
      <use xlink:href="#DejaVuSans-48"/>
      <use x="63.623047" xlink:href="#DejaVuSans-46"/>
      <use x="95.410156" xlink:href="#DejaVuSans-50"/>
     </g>
    </g>
    <g id="text_36">
     <!-- 0.4 -->
     <g transform="translate(857.6456 207.373875)scale(0.1 -0.1)">
      <use xlink:href="#DejaVuSans-48"/>
      <use x="63.623047" xlink:href="#DejaVuSans-46"/>
      <use x="95.410156" xlink:href="#DejaVuSans-52"/>
     </g>
    </g>
    <g id="line2d_17">
     <path d="M 749.575385 196.452 
L 916.56 196.452 
" style="fill:none;stroke:#000000;stroke-linecap:square;stroke-width:0.8;"/>
    </g>
    <g id="text_37">
     <!-- $t / \mu s$ -->
     <g transform="translate(823.617692 220.094188)scale(0.1 -0.1)">
      <use transform="translate(0 0.09375)" xlink:href="#DejaVuSans-Oblique-116"/>
      <use transform="translate(39.208984 0.09375)" xlink:href="#DejaVuSans-47"/>
      <use transform="translate(72.900391 0.09375)" xlink:href="#DejaVuSans-Oblique-956"/>
      <use transform="translate(136.523438 0.09375)" xlink:href="#DejaVuSans-Oblique-115"/>
     </g>
    </g>
   </g>
   <g id="mpl_toolkits.axisartist.axis_artist_14">
    <g>
     <use style="fill:none;stroke:#000000;stroke-width:0.8;" x="757.165594" xlink:href="#m057a9ea8f6" y="23.112"/>
    </g>
    <g>
     <use style="fill:none;stroke:#000000;stroke-width:0.8;" x="811.381379" xlink:href="#m057a9ea8f6" y="23.112"/>
    </g>
    <g>
     <use style="fill:none;stroke:#000000;stroke-width:0.8;" x="865.597163" xlink:href="#m057a9ea8f6" y="23.112"/>
    </g>
    <g id="line2d_18">
     <path d="M 749.575385 23.112 
L 916.56 23.112 
" style="fill:none;stroke:#000000;stroke-linecap:square;stroke-width:0.8;"/>
    </g>
   </g>
   <g id="mpl_toolkits.axisartist.axis_artist_15">
    <g>
     <use style="fill:none;stroke:#000000;stroke-width:0.8;" x="749.575385" xlink:href="#ma2d4c45c7f" y="177.143898"/>
    </g>
    <g>
     <use style="fill:none;stroke:#000000;stroke-width:0.8;" x="749.575385" xlink:href="#ma2d4c45c7f" y="154.978543"/>
    </g>
    <g>
     <use style="fill:none;stroke:#000000;stroke-width:0.8;" x="749.575385" xlink:href="#ma2d4c45c7f" y="132.813189"/>
    </g>
    <g>
     <use style="fill:none;stroke:#000000;stroke-width:0.8;" x="749.575385" xlink:href="#ma2d4c45c7f" y="110.647834"/>
    </g>
    <g>
     <use style="fill:none;stroke:#000000;stroke-width:0.8;" x="749.575385" xlink:href="#ma2d4c45c7f" y="88.48248"/>
    </g>
    <g>
     <use style="fill:none;stroke:#000000;stroke-width:0.8;" x="749.575385" xlink:href="#ma2d4c45c7f" y="66.317125"/>
    </g>
    <g>
     <use style="fill:none;stroke:#000000;stroke-width:0.8;" x="749.575385" xlink:href="#ma2d4c45c7f" y="44.15177"/>
    </g>
    <g id="text_38">
     <!-- −0.3 -->
     <defs>
      <path d="M 40.578125 39.3125 
Q 47.65625 37.796875 51.625 33 
Q 55.609375 28.21875 55.609375 21.1875 
Q 55.609375 10.40625 48.1875 4.484375 
Q 40.765625 -1.421875 27.09375 -1.421875 
Q 22.515625 -1.421875 17.65625 -0.515625 
Q 12.796875 0.390625 7.625 2.203125 
L 7.625 11.71875 
Q 11.71875 9.328125 16.59375 8.109375 
Q 21.484375 6.890625 26.8125 6.890625 
Q 36.078125 6.890625 40.9375 10.546875 
Q 45.796875 14.203125 45.796875 21.1875 
Q 45.796875 27.640625 41.28125 31.265625 
Q 36.765625 34.90625 28.71875 34.90625 
L 20.21875 34.90625 
L 20.21875 43.015625 
L 29.109375 43.015625 
Q 36.375 43.015625 40.234375 45.921875 
Q 44.09375 48.828125 44.09375 54.296875 
Q 44.09375 59.90625 40.109375 62.90625 
Q 36.140625 65.921875 28.71875 65.921875 
Q 24.65625 65.921875 20.015625 65.03125 
Q 15.375 64.15625 9.8125 62.3125 
L 9.8125 71.09375 
Q 15.4375 72.65625 20.34375 73.4375 
Q 25.25 74.21875 29.59375 74.21875 
Q 40.828125 74.21875 47.359375 69.109375 
Q 53.90625 64.015625 53.90625 55.328125 
Q 53.90625 49.265625 50.4375 45.09375 
Q 46.96875 40.921875 40.578125 39.3125 
z
" id="DejaVuSans-51"/>
     </defs>
     <g transform="translate(721.792572 179.903273)scale(0.1 -0.1)">
      <use xlink:href="#DejaVuSans-8722"/>
      <use x="83.789062" xlink:href="#DejaVuSans-48"/>
      <use x="147.412109" xlink:href="#DejaVuSans-46"/>
      <use x="179.199219" xlink:href="#DejaVuSans-51"/>
     </g>
    </g>
    <g id="text_39">
     <!-- −0.2 -->
     <g transform="translate(721.792572 157.737918)scale(0.1 -0.1)">
      <use xlink:href="#DejaVuSans-8722"/>
      <use x="83.789062" xlink:href="#DejaVuSans-48"/>
      <use x="147.412109" xlink:href="#DejaVuSans-46"/>
      <use x="179.199219" xlink:href="#DejaVuSans-50"/>
     </g>
    </g>
    <g id="text_40">
     <!-- −0.1 -->
     <defs>
      <path d="M 12.40625 8.296875 
L 28.515625 8.296875 
L 28.515625 63.921875 
L 10.984375 60.40625 
L 10.984375 69.390625 
L 28.421875 72.90625 
L 38.28125 72.90625 
L 38.28125 8.296875 
L 54.390625 8.296875 
L 54.390625 0 
L 12.40625 0 
z
" id="DejaVuSans-49"/>
     </defs>
     <g transform="translate(721.792572 135.572564)scale(0.1 -0.1)">
      <use xlink:href="#DejaVuSans-8722"/>
      <use x="83.789062" xlink:href="#DejaVuSans-48"/>
      <use x="147.412109" xlink:href="#DejaVuSans-46"/>
      <use x="179.199219" xlink:href="#DejaVuSans-49"/>
     </g>
    </g>
    <g id="text_41">
     <!-- 0.0 -->
     <g transform="translate(730.17226 113.407209)scale(0.1 -0.1)">
      <use xlink:href="#DejaVuSans-48"/>
      <use x="63.623047" xlink:href="#DejaVuSans-46"/>
      <use x="95.410156" xlink:href="#DejaVuSans-48"/>
     </g>
    </g>
    <g id="text_42">
     <!-- 0.1 -->
     <g transform="translate(730.17226 91.241855)scale(0.1 -0.1)">
      <use xlink:href="#DejaVuSans-48"/>
      <use x="63.623047" xlink:href="#DejaVuSans-46"/>
      <use x="95.410156" xlink:href="#DejaVuSans-49"/>
     </g>
    </g>
    <g id="text_43">
     <!-- 0.2 -->
     <g transform="translate(730.17226 69.0765)scale(0.1 -0.1)">
      <use xlink:href="#DejaVuSans-48"/>
      <use x="63.623047" xlink:href="#DejaVuSans-46"/>
      <use x="95.410156" xlink:href="#DejaVuSans-50"/>
     </g>
    </g>
    <g id="text_44">
     <!-- 0.3 -->
     <g transform="translate(730.17226 46.911145)scale(0.1 -0.1)">
      <use xlink:href="#DejaVuSans-48"/>
      <use x="63.623047" xlink:href="#DejaVuSans-46"/>
      <use x="95.410156" xlink:href="#DejaVuSans-51"/>
     </g>
    </g>
    <g id="line2d_19">
     <path d="M 749.575385 196.452 
L 749.575385 23.112 
" style="fill:none;stroke:#000000;stroke-linecap:square;stroke-width:0.8;"/>
    </g>
    <g id="text_45">
     <!-- $V / V$ -->
     <g transform="translate(714.712885 118.332)rotate(-90)scale(0.1 -0.1)">
      <use transform="translate(0 0.09375)" xlink:href="#DejaVuSans-Oblique-86"/>
      <use transform="translate(68.408203 0.09375)" xlink:href="#DejaVuSans-47"/>
      <use transform="translate(102.099609 0.09375)" xlink:href="#DejaVuSans-Oblique-86"/>
     </g>
    </g>
   </g>
   <g id="mpl_toolkits.axisartist.axis_artist_16">
    <g>
     <use style="fill:none;stroke:#000000;stroke-width:0.8;" x="916.56" xlink:href="#mdc68a5109b" y="177.143898"/>
    </g>
    <g>
     <use style="fill:none;stroke:#000000;stroke-width:0.8;" x="916.56" xlink:href="#mdc68a5109b" y="154.978543"/>
    </g>
    <g>
     <use style="fill:none;stroke:#000000;stroke-width:0.8;" x="916.56" xlink:href="#mdc68a5109b" y="132.813189"/>
    </g>
    <g>
     <use style="fill:none;stroke:#000000;stroke-width:0.8;" x="916.56" xlink:href="#mdc68a5109b" y="110.647834"/>
    </g>
    <g>
     <use style="fill:none;stroke:#000000;stroke-width:0.8;" x="916.56" xlink:href="#mdc68a5109b" y="88.48248"/>
    </g>
    <g>
     <use style="fill:none;stroke:#000000;stroke-width:0.8;" x="916.56" xlink:href="#mdc68a5109b" y="66.317125"/>
    </g>
    <g>
     <use style="fill:none;stroke:#000000;stroke-width:0.8;" x="916.56" xlink:href="#mdc68a5109b" y="44.15177"/>
    </g>
    <g id="line2d_20">
     <path d="M 916.56 196.452 
L 916.56 23.112 
" style="fill:none;stroke:#000000;stroke-linecap:square;stroke-width:0.8;"/>
    </g>
   </g>
   <g id="text_46">
    <!-- $\nu_0 = 0.9\nu_s$ -->
    <defs>
     <path d="M 10.984375 1.515625 
L 10.984375 10.5 
Q 14.703125 8.734375 18.5 7.8125 
Q 22.3125 6.890625 25.984375 6.890625 
Q 35.75 6.890625 40.890625 13.453125 
Q 46.046875 20.015625 46.78125 33.40625 
Q 43.953125 29.203125 39.59375 26.953125 
Q 35.25 24.703125 29.984375 24.703125 
Q 19.046875 24.703125 12.671875 31.3125 
Q 6.296875 37.9375 6.296875 49.421875 
Q 6.296875 60.640625 12.9375 67.421875 
Q 19.578125 74.21875 30.609375 74.21875 
Q 43.265625 74.21875 49.921875 64.515625 
Q 56.59375 54.828125 56.59375 36.375 
Q 56.59375 19.140625 48.40625 8.859375 
Q 40.234375 -1.421875 26.421875 -1.421875 
Q 22.703125 -1.421875 18.890625 -0.6875 
Q 15.09375 0.046875 10.984375 1.515625 
z
M 30.609375 32.421875 
Q 37.25 32.421875 41.125 36.953125 
Q 45.015625 41.5 45.015625 49.421875 
Q 45.015625 57.28125 41.125 61.84375 
Q 37.25 66.40625 30.609375 66.40625 
Q 23.96875 66.40625 20.09375 61.84375 
Q 16.21875 57.28125 16.21875 49.421875 
Q 16.21875 41.5 20.09375 36.953125 
Q 23.96875 32.421875 30.609375 32.421875 
z
" id="DejaVuSans-57"/>
    </defs>
    <g transform="translate(804.267692 17.112)scale(0.12 -0.12)">
     <use transform="translate(0 0.78125)" xlink:href="#DejaVuSans-Oblique-957"/>
     <use transform="translate(55.859375 -15.625)scale(0.7)" xlink:href="#DejaVuSans-48"/>
     <use transform="translate(122.612305 0.78125)" xlink:href="#DejaVuSans-61"/>
     <use transform="translate(225.883789 0.78125)" xlink:href="#DejaVuSans-48"/>
     <use transform="translate(289.506836 0.78125)" xlink:href="#DejaVuSans-46"/>
     <use transform="translate(321.293945 0.78125)" xlink:href="#DejaVuSans-57"/>
     <use transform="translate(384.916992 0.78125)" xlink:href="#DejaVuSans-Oblique-957"/>
     <use transform="translate(440.776367 -15.625)scale(0.7)" xlink:href="#DejaVuSans-Oblique-115"/>
    </g>
   </g>
  </g>
 </g>
 <defs>
  <clipPath id="p6814a39c7a">
   <rect height="173.34" width="166.984615" x="48.24" y="23.112"/>
  </clipPath>
  <clipPath id="p879d23e076">
   <rect height="173.34" width="166.984615" x="282.018462" y="23.112"/>
  </clipPath>
  <clipPath id="p6be333d79b">
   <rect height="173.34" width="166.984615" x="515.796923" y="23.112"/>
  </clipPath>
  <clipPath id="p3a55dcf528">
   <rect height="173.34" width="166.984615" x="749.575385" y="23.112"/>
  </clipPath>
 </defs>
</svg>
